{
  "error": false,
  "msg": "cities in russia retrieved",
  "data": [
    "Moscow",
    "Saint Petersburg",
    "Kazan",
    "Novosibirsk",
    "Yekaterinburg",
    "Nizhniy Novgorod",
    "Chelyabinsk",
    "Samara",
    "Omsk",
    "Rostov-on-Don",
    "Ufa",
    "Krasnoyarsk",
    "Voronezh",
    "Perm",
    "Volgograd",
    "Krasnodar",
    "Saratov",
    "Tumen",
    "Tomsk",
    "Tolyatti",
    "Kirov",
    "Orenburg",
    "Vladivostok",
    "Khabarovsk",
    "Irkutsk",
    "Yaroslavl"
  ]
}